info face="MyriadPro-Regular" size=72 bold=0 italic=0 charset="" unicode=0 stretchH=100 smooth=1 aa=1 padding=0,0,0,0 spacing=2,2
common lineHeight=73 base=68 scaleW=256 scaleH=128 pages=1 packed=0
page id=0 file="Numbers.png"
chars count=15
char id=32     x=2     y=115   width=0     height=0     xoffset=0     yoffset=55    xadvance=15    page=0 chnl=0 letter="space"
char id=43     x=173   y=61    width=42    height=43    xoffset=3     yoffset=12    xadvance=43    page=0 chnl=0 letter="+"
char id=45     x=232   y=61    width=22    height=9     xoffset=2     yoffset=29    xadvance=22    page=0 chnl=0 letter="-"
char id=46     x=217   y=61    width=13    height=14    xoffset=4     yoffset=42    xadvance=15    page=0 chnl=0 letter="."
char id=47     x=2     y=2     width=30    height=57    xoffset=-0    yoffset=1     xadvance=25    page=0 chnl=0 letter="/"
char id=48     x=73    y=2     width=36    height=53    xoffset=3     yoffset=3     xadvance=37    page=0 chnl=0 letter="0"
char id=49     x=151   y=61    width=20    height=51    xoffset=7     yoffset=4     xadvance=37    page=0 chnl=0 letter="1"
char id=50     x=2     y=61    width=34    height=52    xoffset=3     yoffset=3     xadvance=37    page=0 chnl=0 letter="2"
char id=51     x=187   y=2     width=34    height=53    xoffset=3     yoffset=3     xadvance=37    page=0 chnl=0 letter="3"
char id=52     x=74    y=61    width=39    height=51    xoffset=1     yoffset=4     xadvance=37    page=0 chnl=0 letter="4"
char id=53     x=38    y=61    width=34    height=52    xoffset=3     yoffset=4     xadvance=37    page=0 chnl=0 letter="5"
char id=54     x=34    y=2     width=37    height=53    xoffset=2     yoffset=3     xadvance=37    page=0 chnl=0 letter="6"
char id=55     x=115   y=61    width=34    height=51    xoffset=4     yoffset=4     xadvance=37    page=0 chnl=0 letter="7"
char id=56     x=111   y=2     width=36    height=53    xoffset=3     yoffset=3     xadvance=37    page=0 chnl=0 letter="8"
char id=57     x=149   y=2     width=36    height=53    xoffset=3     yoffset=3     xadvance=37    page=0 chnl=0 letter="9"
